1375125 et
1110272 à
 745010 que
 691207 en
 482152 pour
 181992 qu'
 149752 mais
 131774 s'
 116924 comme
 100476 également
  98330 ou
  93825 si
  79669 aussi
  59739 donc
  57440 même
  55344 ainsi
  54233 sans
  53552 soit
  50861 encore
  43107 car
  42836 déjà
  29173 après
  28291 toutefois
  26106 avant
  25606 en particulier
  25545 depuis
  24864 afin de
  24460 notamment
  23218 de plus
  22763 enfin
  22580 parce que
  22029 par exemple
  21413 cependant
  20806 tant que
  19136 lorsque
  18775 en effet
  17598 maintenant
  17350 c'est pourquoi
  17223 mais aussi
  16559 surtout
  15720 par conséquent
  15700 dire que
  15289 non seulement
  14838 mieux
  13429 pour que
  13306 en outre
  12867 simplement
  12124 alors
  11960 malheureusement
  11928 quand
  11616 à cet égard
  10879 alors que
  10527 dès lors
  10436 en vue de
  10309 néanmoins
  10233 ensuite
  10140 résultat
   9918 même si
   9902 bien que
   9610 par ailleurs
   9371 lorsqu'
   9319 parce qu'
   9272 tout d'abord
   9101 quant à
   9050 en fait
   8851 deuxièmement
   8698 tout en
   8511 afin d'
   8461 qu'en
   8450 autant
   8447 jusqu'à
   8325 en plus
   7710 pourtant
   7704 à propos
   7676 d'ailleurs
   7670 précisément
   7598 puisque
   7560 premièrement
   6934 plutôt
   6802 effectivement
   6683 afin que
   6589 au moins
   6560 non plus
   6460 or
   6181 puis
   6159 que si
   5928 de même
   5694 au contraire
   5360 d'autre part
   5325 certes
   5267 d'abord
   4922 étant donné que
   4910 finalement
   4877 du fait que
   4857 en réalité
   4680 dans la mesure où
   4579 d'une part
   4378 troisièmement
   4261 tant qu'
   4259 tout comme
   4101 en vue d'
   4040 pour qu'
   4036 remarque
   3780 en même temps
   3738 total
   3624 plus tard
   3619 avant de
   3605 en conséquence
   3599 au lieu de
   3276 en tout cas
   3260 tandis que
   3215 et même
   3148 notamment en
   3137 dans ce cas
   3085 dire qu'
   3005 puisqu'
   2942 parallèlement
   2891 plus particulièrement
   2816 alors qu'
   2786 de manière à
   2778 au fait
   2757 pour conclure
   2754 du moins
   2655 par contre
   2652 bientôt
   2624 bien qu'
   2623 en revanche
   2506 en ce sens
   2493 de même que
   2473 à ce propos
   2423 un jour
   2362 auparavant
   2249 en d'autres termes
   2218 afin qu'
   2205 autrement dit
   2158 de sorte que
   2126 en fin de compte
   2083 avant que
   2074 bref
   2052 sinon
   2046 après tout
   2033 plutôt que
   1984 dès que
   1893 en plus de
   1881 pour terminer
   1866 le temps de
   1699 pour autant
   1665 tout de même
   1665 même s'
   1652 dans le but de
   1639 au moment où
   1627 ou encore
   1622 dès lors que
   1591 pour ce faire
   1585 sans que
   1574 quand même
   1554 autrement
   1546 de l'autre
   1534 de fait
   1527 plutôt que de
   1489 à en
   1456 globalement
   1430 la preuve
   1430 du reste
   1420 avant d'
   1377 histoire de
   1375 au moment de
   1364 maintenant que
   1358 par la suite
   1313 de toute façon
   1271 que s'
   1258 comme si
   1252 quoi qu'il en soit
   1235 étant donné qu'
   1220 cela dit
   1214 malgré tout
   1208 pour autant que
   1158 jusqu'au
   1156 vu que
   1088 de ce fait
   1081 cependant que
   1071 de façon à
   1034 même en
   1034 d'un côté
    988 en définitive
    981 simultanément
    966 de manière à ce que
    944 et encore
    927 ou bien
    926 du fait qu'
    912 plus précisément
    906 par le fait que
    894 plutôt qu'
    883 depuis que
    871 au lieu d'
    866 en attendant
    859 pour commencer
    849 d'un autre côté
    844 comme pour
    841 de la même manière
    811 première étape
    797 le fait est que
    774 là-dessus
    757 encore que
    747 au point de
    739 une fois que
    725 même que
    705 et puis
    691 après que
    689 pour finir
    689 au même titre que
    680 dans tous les cas
    671 sachant que
    670 faute de
    657 à ce moment-là
    647 à condition que
    624 à présent que
    619 c'est ainsi que
    617 sans qu'
    617 en résumé
    614 faute de quoi
    609 au total
    600 au cas où
    599 dans le but d'
    593 au bout du compte
    587 d'autant plus que
    579 jusqu'à ce que
    579 alors même que
    577 au lieu
    556 dès lors qu'
    556 à l'heure où
    555 à moins que
    550 en tout état de cause
    537 en même temps que
    530 à vrai dire
    506 ceci dit
    506 à la place
    499 en plus d'
    488 avant qu'
    485 quoique
    484 de sorte qu'
    482 de la même façon
    478 c'est parce que
    475 peu importe
    465 de même qu'
    453 c'est-à-dire que
    443 plutôt que d'
    420 pour autant qu'
    414 en second lieu
    407 de l'autre côté
    406 pendant que
    405 comme s'
    404 de façon à ce que
    386 dès qu'
    385 à mesure que
    384 en vérité
    378 en bref
    375 tout au moins
    375 en ce sens que
    350 de la même manière que
    347 vu qu'
    347 aussi longtemps que
    345 si bien que
    329 dans le cas où
    325 déjà que
    324 dans le sens où
    321 à partir du moment où
    316 considérant que
    309 ceci étant dit
    307 la preuve que
    306 d'autant que
    305 tandis qu'
    303 surtout si
    303 c'est-à-dire qu'
    302 cependant qu'
    297 soit dit en passant
    282 à moins de
    278 le jour où
    276 le temps d'
    270 somme toute
    266 malgré le fait que
    263 en comparaison
    254 de toute manière
    253 à l'inverse
    245 de manière à ce qu'
    241 sans même
    238 soudain
    237 en ce sens qu'
    233 pour résumer
    233 même qu'
    230 surtout que
    229 maintenant qu'
    226 encore qu'
    218 pour preuve
    217 à condition qu'
    215 jusqu'à ce qu'
    215 en somme
    213 et dire que
    213 en tous cas
    212 une fois qu'
    212 reste que
    207 inversement
    205 non sans
    202 ou alors
    200 faute d'
    191 au point d'
    187 aussitôt
    187 au moment d'
    185 nonobstant
    183 en gros
    183 avant même que
    182 à défaut de
    180 quoiqu'
    177 considéré que
    176 après quoi
    175 comme ça
    173 de la même façon que
    171 à moins qu'
    167 quand bien même
    165 en tous les cas
    163 en dépit du fait que
    163 c'est ainsi qu'
    160 à condition de
    159 d'autant plus qu'
    155 c'est parce qu'
    152 décidément
    151 surtout quand
    150 sachant qu'
    150 par le fait qu'
    148 in fine
    147 dans l'espoir que
    147 au point que
    146 d'un coup
    140 après qu'
    139 au fur et à mesure que
    138 à défaut d'
    137 attendu que
    133 peu après
    131 alors même qu'
    128 à la réflexion
    125 tout à coup
    124 au motif que
    122 le fait est qu'
    120 par voie de conséquence
    120 même quand
    119 en même temps qu'
    118 du coup
    117 à l'époque où
    114 par suite
    111 cinq ans après
    110 le temps que
    105 si bien qu'
    105 de façon à ce qu'
    103 preuve que
    103 de telle manière que
    103 à moins d'
    102 peu avant
    102 depuis qu'
     98 reste qu'
     98 par comparaison
     96 tout bien considéré
     96 pourvu que
     96 d'autant qu'
     95 dans l'hypothèse où
     95 à force de
     93 dans le sens que
     89 sauf à
     87 à présent qu'
     86 le temps qu'
     86 aussi longtemps qu'
     85 quitte à
     83 à condition d'
     82 surtout qu'
     81 sauf pour
     81 sans compter que
     80 tout compte fait
     80 histoire d'
     80 dans l'espoir de
     80 au motif qu'
     79 un peu plus tard
     78 à tel point que
     74 selon qu'
     73 réciproquement
     73 malgré le fait qu'
     69 selon que
     67 avant même qu'
     67 avant même d'
     67 à trop
     66 dans ce cas-là
     66 aussitôt que
     65 un jour que
     65 comparativement
     63 considérant qu'
     63 à mesure qu'
     62 outre le fait que
     60 toujours est-il que
     60 sans oublier que
     60 pourvu qu'
     60 pendant qu'
     60 la preuve qu'
     60 en supposant que
     59 pour peu que
     58 considéré qu'
     57 dans l'espoir d'
     56 bien avant que
     53 dans l'espoir qu'
     52 quelques jours plus tard
     52 de telle façon que
     52 à dire vrai
     51 si tant est que
     51 outre le fait qu'
     51 malgré que
     51 d'où qu'
     50 surtout s'
     50 avant même de
     48 si tant est qu'
     48 de façon que
     46 déjà qu'
     46 dans l'intention de
     45 au point qu'
     45 à supposer que
     44 plus globalement
     44 outre qu'
     44 jusqu'au moment où
     43 de telle manière qu'
     43 de la même manière qu'
     42 si ce n'est que
     41 sauf que
     41 et dire qu'
     40 pour peu qu'
     40 et pour cause
     40 d'un seul coup
     40 du moment que
     40 c'est alors que
     39 sans compter qu'
     39 en dépit du fait qu'
     38 instantanément
     35 à tel point qu'
     34 tout d'un coup
     34 de toutes façons
     32 malgré qu'
     32 au même titre qu'
     31 de la même façon qu'
     31 c'est dire que
     29 trois mois après
     29 attendu qu'
     28 un peu comme si
     28 ou bien encore
     27 un mois après
     26 outre que
     24 hormis le fait que
     22 du moment qu'
     22 comme quoi
     20 est-ce à dire que
     20 de telle façon qu'
     19 dans le sens qu'
     19 au fur et à mesure qu'
     19 à force d'
     18 tant et si bien que
     18 sans oublier qu'
     18 mis à part le fait que
     18 en admettant que
     18 c'est alors qu'
     18 autant dire que
     17 sinon que
     17 a fortiori si
     16 toujours est-il qu'
     16 surtout au moment où
     16 preuve qu'
     16 huit mois après
     16 deux mois plus tard
     16 c'est dire qu'
     16 à supposer qu'
     16 à ceci près que
     15 un jour qu'
     15 si ce n'est qu'
     14 sauf qu'
     14 de manière que
     14 après plusieurs mois
     13 sans doute parce que
     13 du temps où
     12 pour le coup
     11 sinon qu'
     11 peu avant de
     11 en supposant qu'
     11 bien avant qu'
     10 tant et si bien qu'
     10 suivant que
     10 sans doute parce qu'
     10 de façon qu'
     10 dans l'intention d'
     10 corrélativement
     10 à seule fin de
     10 à l'instant où
      9 cette fois que
      9 c'est à dire que
      8 subséquemment
      8 en admettant qu'
      8 dire encore que
      8 à telle enseigne que
      8 à preuve
      7 réflexion faite
      7 de manière qu'
      6 quitte à ce que
      6 presque comme si
      6 pour une fois que
      6 dans le but que
      6 autant dire qu'
      6 à force
      5 un peu comme s'
      5 de toutes manières
      5 aussitôt qu'
      5 à ce point que
      4 sitôt que
      4 pour une fois qu'
      4 mis à part le fait qu'
      4 excepté que
      4 conséquemment
      4 à part ça
      3 un mois après que
      3 suivant qu'
      3 sitôt qu'
      3 quitte à ce qu'
      3 quelques heures auparavant
      3 peu avant d'
      3 en ce cas
      3 d'ici que
      3 au besoin en
      2 plusieurs mois avant que
      2 mis à part que
      2 huit jours après
      2 d'ici qu'
      2 dans le coup
      2 c'est à dire qu'
      2 au moins tant qu'
      2 à part que
      2 à part qu'
      2 à ceci près qu'
      1 six mois après que
      1 quand alors
      1 nonobstant que
      1 hormis qu'
      1 hormis le fait qu'
      1 d'où que
      1 dans l'intention qu'
      1 dans le but qu'
      1 à telle enseigne qu'
      1 à seule fin d'
      1 a fortiori s'
      1 à cela près que
