alternation,Expansion Alternative,
background,Temporal Synchrony,
background inverse,Comparison Concession,
commentary,Expansion Restatement,
concession,Comparison Concession,
condition,Contingency Condition,
consequence,null,
continuation,Expansion Conjunction, Exapnsion List
contrast,Comparison Contrast,
detachment,null,
elaboration,Expansion Instantiation,Expansion Restatement
evidence,Contingency Cause Reason,
explanation,Contingency Cause Reason,
explanation*,Pragmatic Cause,
flashback,Temporal Asynchronous Precedence,
goal,null,
narration,Temporal Asynchronous Succession,
opposition,Comparison Contrast,Expansion Exception,
parallel,Expansion Conjunction, Exapnsion List
rephrasing,Expansion Resatatement,
result,Contingency Cause Result,
result*,null,
summary,Expansion Resatatement,
temploc,Temporal,
temporal,Temporal,
unknown,null,
violation,Comparison Concession,